…
    who3 <- who2 %>%
      group_by(country, year, sex) %>%
      summarise(total_by_sex = sum(TB_cases))

    ## `summarise()` has grouped output by 'country', 'year'. You can override using
    ## the `.groups` argument.

    who3

    ## # A tibble: 6,921 × 4
    ## # Groups:   country, year [3,484]
    ##    country      year sex   total_by_sex
    ##    <chr>       <dbl> <chr>        <dbl>
    ##  1 Afghanistan  1997 f              102
    ##  2 Afghanistan  1997 m               26
    ##  3 Afghanistan  1998 f             1207
    ##  4 Afghanistan  1998 m              571
    ##  5 Afghanistan  1999 f              517
    ##  6 Afghanistan  1999 m              228
    ##  7 Afghanistan  2000 f             1751
    ##  8 Afghanistan  2000 m              915
    ##  9 Afghanistan  2001 f             3062
    ## 10 Afghanistan  2001 m             1577
    ## # … with 6,911 more rows
…
**c. For each country-year, compute the ratio of male to female
patients.**

    who5 <- who3 %>%
      group_by(country, year) %>%
      mutate(total_by_year = sum(total_by_sex)) %>%
      mutate(ratio_male_female = total_by_sex / total_by_year) %>%
      filter(sex == "m")

    who5 

    ## # A tibble: 3,466 × 6
    ## # Groups:   country, year [3,466]
    ##    country      year sex   total_by_sex total_by_year ratio_male_female
    ##    <chr>       <dbl> <chr>        <dbl>         <dbl>             <dbl>
    ##  1 Afghanistan  1997 m               26           128             0.203
    ##  2 Afghanistan  1998 m              571          1778             0.321
    ##  3 Afghanistan  1999 m              228           745             0.306
    ##  4 Afghanistan  2000 m              915          2666             0.343
    ##  5 Afghanistan  2001 m             1577          4639             0.340
    ##  6 Afghanistan  2002 m             2091          6509             0.321
    ##  7 Afghanistan  2003 m             2105          6528             0.322
    ##  8 Afghanistan  2004 m             2658          8245             0.322
    ##  9 Afghanistan  2005 m             3131          9949             0.315
    ## 10 Afghanistan  2006 m             3949         12469             0.317
    ## # … with 3,456 more rows
…
**d. Producing these ratios by year (ignoring country) is probably a bad
idea. Why?**

    who4 <- who2 %>%
      group_by(year, sex) %>%
      summarise(total_by_sex = sum(TB_cases)) %>%
      group_by(year) %>%
      mutate(total_by_year = sum(total_by_sex)) %>%
      mutate(ratio_male_female = total_by_sex / total_by_year) %>%
      filter(sex == "m")

    who4

    ## # A tibble: 34 × 5
    ## # Groups:   year [34]
    ##     year sex   total_by_sex total_by_year ratio_male_female
    ##    <dbl> <chr>        <dbl>         <dbl>             <dbl>
    ##  1  1980 m              622           959             0.649
    ##  2  1981 m              514           805             0.639
    ##  3  1982 m              531           824             0.644
    ##  4  1983 m              491           786             0.625
    ##  5  1984 m              503           814             0.618
    ##  6  1985 m              513           799             0.642
    ##  7  1986 m              482           754             0.639
    ##  8  1987 m              423           670             0.631
    ##  9  1988 m              433           682             0.635
    ## 10  1989 m              410           654             0.627
    ## # … with 24 more rows
…
-   Adding the location to the flights data frame

<!-- -->

    flights %>%
      select(month, day, carrier, origin, dest) %>% # selecting just variables of interest
      left_join(airports_location, by = c("origin" = "faa")) %>%
      left_join(airports_location, by = c("dest" = "faa")) %>%
      rename(
        Lat_origin = lat.x, Lon_origin = lon.x, Lat_dest = lat.y,
        Lon_dest = lon.y
      )

    ## # A tibble: 336,776 × 9
    ##    month   day carrier origin dest  Lat_origin Lon_origin Lat_dest Lon_dest
    ##    <int> <int> <chr>   <chr>  <chr>      <dbl>      <dbl>    <dbl>    <dbl>
    ##  1     1     1 UA      EWR    IAH         40.7      -74.2     30.0    -95.3
    ##  2     1     1 UA      LGA    IAH         40.8      -73.9     30.0    -95.3
    ##  3     1     1 AA      JFK    MIA         40.6      -73.8     25.8    -80.3
    ##  4     1     1 B6      JFK    BQN         40.6      -73.8     NA       NA  
    ##  5     1     1 DL      LGA    ATL         40.8      -73.9     33.6    -84.4
    ##  6     1     1 UA      EWR    ORD         40.7      -74.2     42.0    -87.9
    ##  7     1     1 B6      EWR    FLL         40.7      -74.2     26.1    -80.2
    ##  8     1     1 EV      LGA    IAD         40.8      -73.9     38.9    -77.5
    ##  9     1     1 B6      JFK    MCO         40.6      -73.8     28.4    -81.3
    ## 10     1     1 AA      LGA    ORD         40.8      -73.9     42.0    -87.9
    ## # … with 336,766 more rows

**3. Is each plane is flown by a single airline? How many planes change
ownership within the nycflights13 dataset?**

-   Calculating the Total number of combinations for carrier and
    tailnum:

<!-- -->

    planes_by_airlines <- flights %>%
      filter(!is.na(tailnum)) %>%
      distinct(tailnum, carrier)
    planes_by_airlines

    ## # A tibble: 4,060 × 2
    ##    carrier tailnum
    ##    <chr>   <chr>  
    ##  1 UA      N14228 
    ##  2 UA      N24211 
    ##  3 AA      N619AA 
    ##  4 B6      N804JB 
    ##  5 DL      N668DN 
    ##  6 UA      N39463 
    ##  7 B6      N516JB 
    ##  8 EV      N829AS 
    ##  9 B6      N593JB 
    ## 10 AA      N3ALAA 
    ## # … with 4,050 more rows
…
-   Creating a variable to calculate the age of the plane and the
    average arrival delay by group of age

<!-- -->

    plane2 <- plane1 %>%
      filter(dep_delay > 0) %>% # Filtering to have just the DELAYs and not early departure
      mutate(age = flight_year - manufactered_year) %>%
      group_by(age) %>%
      summarise(ave_dep_delay = mean(dep_delay, na.rm = TRUE))

    plane2 %>%
      arrange(desc(age))

    ## # A tibble: 47 × 2
    ##      age ave_dep_delay
    ##    <int>         <dbl>
    ##  1    57          14.9
    ##  2    54          49.9
    ##  3    50          31.6
    ##  4    48           5  
    ##  5    46          36.8
    ##  6    45          75.6
    ##  7    41          41.9
    ##  8    40          10.5
    ##  9    39          36.2
    ## 10    38          45.2
    ## # … with 37 more rows
…
